<?xml version="1.0" encoding="UTF-8"?>
<svg width="130px" height="15px" viewBox="0 0 130 15" version="1.1" xmlns="http://www.w3.org/2000/svg" xmlns:xlink="http://www.w3.org/1999/xlink">
    <title>StarsNotFilled</title>
    <g id="Design" stroke="none" stroke-width="1" fill="none" fill-rule="evenodd">
        <g id="StarsNotFilled">
            <path d="M13,0.796493838 L14.7182457,5.99413417 L20.2122685,5.99413417 L15.7022533,9.17742086 L17.4410305,14.3397657 L13,11.127292 L8.55896949,14.3397657 L10.2977467,9.17742086 L5.78773149,5.99413417 L11.2817543,5.99413417 L13,0.796493838 Z" id="Path-Copy-4-Copy-5" stroke="#F29130" stroke-width="0.5" fill-rule="nonzero"></path>
            <path d="M39,0.796493838 L40.7182457,5.99413417 L46.2122685,5.99413417 L41.7022533,9.17742086 L43.4410305,14.3397657 L39,11.127292 L34.5589695,14.3397657 L36.2977467,9.17742086 L31.7877315,5.99413417 L37.2817543,5.99413417 L39,0.796493838 Z" id="Path-Copy-4-Copy-6" stroke="#F29130" stroke-width="0.5" fill-rule="nonzero"></path>
            <path d="M65,0.796493838 L66.7182457,5.99413417 L72.2122685,5.99413417 L67.7022533,9.17742086 L69.4410305,14.3397657 L65,11.127292 L60.5589695,14.3397657 L62.2977467,9.17742086 L57.7877315,5.99413417 L63.2817543,5.99413417 L65,0.796493838 Z" id="Path-Copy-4-Copy-7" stroke="#F29130" stroke-width="0.5" fill-rule="nonzero"></path>
            <path d="M91,0.796493838 L92.7182457,5.99413417 L98.2122685,5.99413417 L93.7022533,9.17742086 L95.4410305,14.3397657 L91,11.127292 L86.5589695,14.3397657 L88.2977467,9.17742086 L83.7877315,5.99413417 L89.2817543,5.99413417 L91,0.796493838 Z" id="Path-Copy-4-Copy-8" stroke="#F29130" stroke-width="0.5" fill-rule="nonzero"></path>
            <path d="M117,0.796493838 L118.718246,5.99413417 L124.212269,5.99413417 L119.702253,9.17742086 L121.441031,14.3397657 L117,11.127292 L112.558969,14.3397657 L114.297747,9.17742086 L109.787731,5.99413417 L115.281754,5.99413417 L117,0.796493838 Z" id="Path-Copy-4-Copy-9" stroke="#F29130" stroke-width="0.5" fill-rule="nonzero"></path>
            <rect id="Rectangle-Copy-15" x="0" y="0" width="5" height="15"></rect>
            <rect id="Rectangle-Copy-16" x="125" y="0" width="5" height="15"></rect>
        </g>
    </g>
</svg>